{
	"consumer": {
		"name": "WEB GUI - Consultation reasons"
	},
	"provider": {
		"name": "WEB API"
	},
	"interactions": [
		{
			"description": "a request for a consultation reason data",
			"provider_state": "consultation reasons exist",
			"request": {
				"method": "get",
				"path": "/consultation_reasons/111",
				"headers": {
					"Authorization": "Bearer my_secret_token"
				}
			},
			"response": {
				"status": 200,
				"headers": {
					"Content-Type": "application/vnd.api+json"
				},
				"body": {
					"data":
						{
							"type": "consultation_reasons",
							"id": "111",
							"attributes": {
								"appointment_duration": "PT1H",
								"code": "VV",
								"colour": "#00AFDF",
								"title": "Violence volontaire"
							},
							"relationships": {
								"consultation_type": {
									"data": { "type": "consultation_types", "id": "11" }
								}
							}
						}
				},
				"matchingRules": {
					"$.body.data.attributes.appointment_duration": {
						"regex": "\\APT(\\d+H)?(\\d+M)?\\z"
					},
					"$.body.data.attributes.code": {
						"match": "type"
					},
					"$.body.data.attributes.colour": {
						"match": "type"
					},
					"$.body.data.attributes.title": {
						"match": "type"
					}
				}
			}
		},
		{
			"description": "a request for consultation reason data",
			"provider_state": "consultation reasons exist",
			"request": {
				"method": "get",
				"path": "/consultation_reasons/112",
				"headers": {
					"Authorization": "Bearer my_secret_token"
				}
			},
			"response": {
				"status": 200,
				"headers": {
					"Content-Type": "application/vnd.api+json"
				},
				"body": {
					"data":
						{
							"type": "consultation_reasons",
							"id": "112",
							"attributes": {
								"appointment_duration": "PT45M",
								"code": "AS",
								"colour": "#00DFAF",
								"title": "Agression sexuelle"
							},
							"relationships": {
								"consultation_type": {
									"data": { "type": "consultation_types", "id": "11" }
								}
							}
						}
				},
				"matchingRules": {
					"$.body.data.attributes.appointment_duration": {
						"regex": "\\APT(\\d+H)?(\\d+M)?\\z"
					},
					"$.body.data.attributes.code": {
						"match": "type"
					},
					"$.body.data.attributes.colour": {
						"match": "type"
					},
					"$.body.data.attributes.title": {
						"match": "type"
					}
				}
			}
		},
		{
			"description": "a request to create a consultation reason with valid params",
			"provider_state": "consultation types exist",
			"request": {
				"method": "post",
				"path": "/consultation_reasons",
				"headers": {
					"Content-Type": "application/vnd.api+json",
					"Authorization": "Bearer my_secret_token"
				},
				"body": {
					"data": {
						"type": "consultation_reasons",
						"attributes": {
							"appointment_duration": "PT30M",
							"code": "ITT",
							"colour": "#FF7F50",
							"title": "Interruption totale de travail"
						},
						"relationships": {
							"consultation_type": {
								"data": { "type": "consultation_types", "id": "11" }
							}
						}
					}
				}
			},
			"response": {
				"status": 201,
				"headers": {
					"Content-Type": "application/vnd.api+json"
				},
				"body": {
					"data": {
						"type": "consultation_reasons",
						"id": "113",
						"attributes": {
							"appointment_duration": "PT30M",
							"code": "ITT",
							"colour": "#FF7F50",
							"title": "Interruption totale de travail"
						},
						"relationships": {
							"consultation_type": {
								"data": { "type": "consultation_types", "id": "11" }
							}
						}
					}
				},
				"matchingRules": {
					"$.body.data.id": {
						"match": "type"
					}
				}
			}
		},
		{
			"description": "a request to create a consultation reason with invalid params",
			"provider_state": "consultation types exist",
			"request": {
				"method": "post",
				"path": "/consultation_reasons",
				"headers": {
					"Content-Type": "application/vnd.api+json",
					"Authorization": "Bearer my_secret_token"
				},
				"body": {
					"data": {
						"type": "consultation_reasons",
						"attributes": {
							"appointment_duration": " ",
							"code": " ",
							"colour": " ",
							"title": " "
						},
						"relationships": {
							"consultation_type": {
								"data": { "type": "consultation_types", "id": "11" }
							}
						}
					}
				}
			},
			"response": {
				"status": 422,
				"headers": {
					"Content-Type": "application/vnd.api+json"
				},
				"body": {
					"errors": [
						{
							"title": "Invalid appointment_duration",
							"detail": "Appointment duration can't be blank",
							"source": {
								"pointer": "/data/attributes/appointment_duration"
							}
						},
						{
							"title": "Invalid code",
							"detail": "Code can't be blank",
							"source": {
								"pointer": "/data/attributes/code"
							}
						},
						{
							"title": "Invalid colour",
							"detail": "Colour can't be blank",
							"source": {
								"pointer": "/data/attributes/colour"
							}
						},
						{
							"title": "Invalid title",
							"detail": "Title can't be blank",
							"source": {
								"pointer": "/data/attributes/title"
							}
						}
					]
				}
			}
		},
		{
			"description": "a request to update a consultation reason with valid params",
			"provider_state": "consultation reasons exist",
			"request": {
				"method": "patch",
				"path": "/consultation_reasons/111",
				"headers": {
					"Content-Type": "application/vnd.api+json",
					"Authorization": "Bearer my_secret_token"
				},
				"body": {
					"data": {
						"type": "consultation_reasons",
						"id": "111",
						"attributes": {
							"appointment_duration": "PT1H",
							"code": "VV",
							"colour": "#00AFDF",
							"title": "Violences volontaires"
						},
						"relationships": {
							"consultation_type": {
								"data": { "type": "consultation_types", "id": "11" }
							}
						}
					}
				}
			},
			"response": {
				"status": 200,
				"headers": {
					"Content-Type": "application/vnd.api+json"
				},
				"body": {
					"data": {
						"type": "consultation_reasons",
						"id": "111",
						"attributes": {
							"appointment_duration": "PT1H",
							"code": "VV",
							"colour": "#00AFDF",
							"title": "Violences volontaires"
						},
						"relationships": {
							"consultation_type": {
								"data": { "type": "consultation_types", "id": "11" }
							}
						}
					}
				}
			}
		},
		{
			"description": "a request to update a consultation reason with invalid params",
			"provider_state": "consultation reasons exist",
			"request": {
				"method": "patch",
				"path": "/consultation_reasons/111",
				"headers": {
					"Content-Type": "application/vnd.api+json",
					"Authorization": "Bearer my_secret_token"
				},
				"body": {
					"data": {
						"type": "consultation_reasons",
						"id": "111",
						"attributes": {
							"appointment_duration": "PT1H",
							"code": "VV",
							"colour": "#00AFDF",
							"title": " "
						},
						"relationships": {
							"consultation_type": {
								"data": { "type": "consultation_types", "id": "11" }
							}
						}
					}
				}
			},
			"response": {
				"status": 422,
				"headers": {
					"Content-Type": "application/vnd.api+json"
				},
				"body": {
					"errors": [
						{
							"title": "Invalid title",
							"detail": "Title can't be blank",
							"source": {
								"pointer": "/data/attributes/title"
							}
						}
					]
				}
			}
		},
		{
			"description": "a request to delete an consultation reason",
			"provider_state": "consultation reasons exist",
			"request": {
				"method": "delete",
				"path": "/consultation_reasons/112",
				"headers": {
					"Authorization": "Bearer my_secret_token"
				}
			},
			"response": {
				"status": 204
			}
		}
	],
	"metadata": {
		"pactSpecificationVersion": "2.0.0"
	}
}
