{
	"consumer": {
		"name": "WEB GUI - Time slots"
	},
	"provider": {
		"name": "WEB API"
	},
	"interactions": [
		{
			"description": "a request for time slot data",
			"provider_state": "time slots exist",
			"request": {
				"method": "get",
				"path": "/time_slots/11111",
				"headers": {
					"Authorization": "Bearer my_secret_token"
				}
			},
			"response": {
				"status": 200,
				"headers": {
					"Content-Type": "application/vnd.api+json"
				},
				"body": {
					"data": {
						"type": "time_slots",
						"id": "11111",
						"attributes": {
							"week_day": 1,
							"starts_at": "T08:00",
							"ends_at": "T12:00"
						},
						"relationships": {
							"schedule": {
								"data": { "type": "schedules", "id": "11" }
							},
							"consultation_type": {
								"data": { "type": "consultation_types", "id": "11" }
							}
						}
					}
				},
				"matchingRules": {
					"$.body.data.id": {
						"match": "type"
					},
					"$.body.data.attributes.week_day": {
						"match": "type"
					},
					"$.body.data.attributes.starts_at": {
						"regex": "\\AT(0[0-9]|1[0-9]|2[0-3]):([0-5][0-9])\\z"
					},
					"$.body.data.attributes.ends_at": {
						"regex": "\\AT(0[0-9]|1[0-9]|2[0-3]):([0-5][0-9])\\z"
					},
					"$.body.data.relationships.schedule.data.id": {
						"match": "type"
					},
					"$.body.data.relationships.consultation_type.data.id": {
						"match": "type"
					}
				}
			}
		},
		{
			"description": "a request for time slot data",
			"provider_state": "time slots exist",
			"request": {
				"method": "get",
				"path": "/time_slots/11112",
				"headers": {
					"Authorization": "Bearer my_secret_token"
				}
			},
			"response": {
				"status": 200,
				"headers": {
					"Content-Type": "application/vnd.api+json"
				},
				"body": {
					"data": {
						"type": "time_slots",
						"id": "11112",
						"attributes": {
							"week_day": 1,
							"starts_at": "T13:00",
							"ends_at": "T17:00"
						},
						"relationships": {
							"schedule": {
								"data": { "type": "schedules", "id": "11" }
							},
							"consultation_type": {
								"data": { "type": "consultation_types", "id": "11" }
							}
						}
					}
				},
				"matchingRules": {
					"$.body.data.id": {
						"match": "type"
					},
					"$.body.data.attributes.week_day": {
						"match": "type"
					},
					"$.body.data.attributes.starts_at": {
						"regex": "\\AT(0[0-9]|1[0-9]|2[0-3]):([0-5][0-9])\\z"
					},
					"$.body.data.attributes.ends_at": {
						"regex": "\\AT(0[0-9]|1[0-9]|2[0-3]):([0-5][0-9])\\z"
					},
					"$.body.data.relationships.schedule.data.id": {
						"match": "type"
					},
					"$.body.data.relationships.consultation_type.data.id": {
						"match": "type"
					}
				}
			}
		},
		{
			"description": "a request for time slot data",
			"provider_state": "time slots exist",
			"request": {
				"method": "get",
				"path": "/time_slots/11113",
				"headers": {
					"Authorization": "Bearer my_secret_token"
				}
			},
			"response": {
				"status": 200,
				"headers": {
					"Content-Type": "application/vnd.api+json"
				},
				"body": {
					"data": {
						"type": "time_slots",
						"id": "11113",
						"attributes": {
							"week_day": 2,
							"starts_at": "T08:00",
							"ends_at": "T12:00"
						},
						"relationships": {
							"schedule": {
								"data": { "type": "schedules", "id": "11" }
							},
							"consultation_type": {
								"data": { "type": "consultation_types", "id": "11" }
							}
						}
					}
				},
				"matchingRules": {
					"$.body.data.id": {
						"match": "type"
					},
					"$.body.data.attributes.week_day": {
						"match": "type"
					},
					"$.body.data.attributes.starts_at": {
						"regex": "\\AT(0[0-9]|1[0-9]|2[0-3]):([0-5][0-9])\\z"
					},
					"$.body.data.attributes.ends_at": {
						"regex": "\\AT(0[0-9]|1[0-9]|2[0-3]):([0-5][0-9])\\z"
					},
					"$.body.data.relationships.schedule.data.id": {
						"match": "type"
					},
					"$.body.data.relationships.consultation_type.data.id": {
						"match": "type"
					}
				}
			}
		},
		{
			"description": "a request for time slot data",
			"provider_state": "time slots exist",
			"request": {
				"method": "get",
				"path": "/time_slots/11121",
				"headers": {
					"Authorization": "Bearer my_secret_token"
				}
			},
			"response": {
				"status": 200,
				"headers": {
					"Content-Type": "application/vnd.api+json"
				},
				"body": {
					"data": {
						"type": "time_slots",
						"id": "11121",
						"attributes": {
							"week_day": 3,
							"starts_at": "T08:00",
							"ends_at": "T12:00"
						},
						"relationships": {
							"schedule": {
								"data": { "type": "schedules", "id": "11" }
							},
							"consultation_type": {
								"data": { "type": "consultation_types", "id": "12" }
							}
						}
					}
				},
				"matchingRules": {
					"$.body.data.id": {
						"match": "type"
					},
					"$.body.data.attributes.week_day": {
						"match": "type"
					},
					"$.body.data.attributes.starts_at": {
						"regex": "\\AT(0[0-9]|1[0-9]|2[0-3]):([0-5][0-9])\\z"
					},
					"$.body.data.attributes.ends_at": {
						"regex": "\\AT(0[0-9]|1[0-9]|2[0-3]):([0-5][0-9])\\z"
					},
					"$.body.data.relationships.schedule.data.id": {
						"match": "type"
					},
					"$.body.data.relationships.consultation_type.data.id": {
						"match": "type"
					}
				}
			}
		},
		{
			"description": "a request to create a time slot with valid params",
			"provider_state": "schedules and consultation types exist",
			"request": {
				"method": "post",
				"path": "/time_slots",
				"headers": {
					"Content-Type": "application/vnd.api+json",
					"Authorization": "Bearer my_secret_token"
				},
				"body": {
					"data": {
						"type": "time_slots",
						"attributes": {
							"week_day": 3,
							"starts_at": "T13:00",
							"ends_at": "T17:00"
						},
						"relationships": {
							"schedule": {
								"data": { "type": "schedules", "id": "11" }
							},
							"consultation_type": {
								"data": { "type": "consultation_types", "id": "12" }
							}
						}
					}
				}
			},
			"response": {
				"status": 201,
				"headers": {
					"Content-Type": "application/vnd.api+json"
				},
				"body": {
					"data": {
						"type": "time_slots",
						"id": "11122",
						"attributes": {
							"week_day": 3,
							"starts_at": "T13:00",
							"ends_at": "T17:00"
						},
						"relationships": {
							"schedule": {
								"data": { "type": "schedules", "id": "11" }
							},
							"consultation_type": {
								"data": { "type": "consultation_types", "id": "12" }
							}
						}
					}
				},
				"matchingRules": {
					"$.body.data.id": {
						"match": "type"
					}
				}
			}
		},
		{
			"description": "a request to update a time slot with valid params",
			"provider_state": "time slots exist",
			"request": {
				"method": "patch",
				"path": "/time_slots/11111",
				"headers": {
					"Content-Type": "application/vnd.api+json",
					"Authorization": "Bearer my_secret_token"
				},
				"body": {
					"data": {
						"type": "time_slots",
						"id": "11111",
						"attributes": {
							"week_day": 1,
							"starts_at": "T08:00",
							"ends_at": "T12:15"
						},
						"relationships": {
							"schedule": {
								"data": { "type": "schedules", "id": "11" }
							},
							"consultation_type": {
								"data": { "type": "consultation_types", "id": "11" }
							}
						}
					}
				}
			},
			"response": {
				"status": 200,
				"headers": {
					"Content-Type": "application/vnd.api+json"
				},
				"body": {
					"data": {
						"type": "time_slots",
						"id": "11111",
						"attributes": {
							"week_day": 1,
							"starts_at": "T08:00",
							"ends_at": "T12:15"
						},
						"relationships": {
							"schedule": {
								"data": { "type": "schedules", "id": "11" }
							},
							"consultation_type": {
								"data": { "type": "consultation_types", "id": "11" }
							}
						}
					}
				}
			}
		},
		{
			"description": "a request to delete a time slot",
			"provider_state": "time slots exist",
			"request": {
				"method": "delete",
				"path": "/time_slots/11111",
				"headers": {
					"Authorization": "Bearer my_secret_token"
				}
			},
			"response": {
				"status": 204
			}
		}
	],
	"metadata": {
		"pactSpecificationVersion": "2.0.0"
	}
}
